<?xml version="1.0" encoding="utf-8"?>
<!-- Generator: Adobe Illustrator 16.0.0, SVG Export Plug-In . SVG Version: 6.00 Build 0)  -->
<!DOCTYPE svg PUBLIC "-//W3C//DTD SVG 1.1//EN" "http://www.w3.org/Graphics/SVG/1.1/DTD/svg11.dtd">
<svg version="1.1" id="Layer_1" xmlns="http://www.w3.org/2000/svg" xmlns:xlink="http://www.w3.org/1999/xlink" x="0px" y="0px"
	 width="50px" height="50px" viewBox="0 0 50 50" enable-background="new 0 0 50 50" xml:space="preserve">
<path fill-rule="evenodd" clip-rule="evenodd" fill="#FFFFFF" d="M33.33,45.1v1.76h1.77V45.1h1.57v1.76h1.76V45.1H40v1.76h1.76V45.1
	h6.67v3.33H30V45.1H33.33z M4.9,45.1v1.76h1.77V45.1h2.35v1.76h1.76V45.1h1.57v1.76h1.77V45.1h1.57c0,0.59-0.4,1.17,0.39,1.76h1.37
	V45.1H20v3.33H1.57V45.1H4.9z M33.33,40v1.76h1.77V40h1.57v1.76h1.76V40H40v1.76h1.76V40h6.67v3.33H30V40H33.33z M8.24,40v1.76H10
	V40h1.57v1.76h1.76V40h1.57v1.76h1.77V40h1.57v1.76H20V40h1.57v3.33H3.33V40H8.24z M30,35.1v1.57h1.76V35.1h1.57v1.57h1.77V35.1
	h1.57v1.57h1.76V35.1H40v1.57h1.76V35.1h1.57v1.57h1.77V35.1h1.57v3.33H28.43V35.1H30z M9.02,35.1v1.57h1.76V35.1h1.57v1.57h1.77
	V35.1h1.57v1.57h1.76V35.1H20v3.33H1.57V35.1H9.02z M30,30v1.76h1.76V30h1.57v1.76h1.77V30h1.57v1.76h1.76V30H40v1.76h1.76V30h1.57
	v1.76h1.77V30h1.57v3.33H28.43V30H30z M4.9,30v1.76h1.77V30h1.57v1.76H10V30h1.57v1.76h1.76V30h1.57v1.76h1.77V30h1.57v1.76H20V30
	h1.57v3.33H3.33V30H4.9z M30,25.1v1.57h1.76V25.1h1.57v1.57h1.77V25.1h1.57v1.57h1.76V25.1H40v1.57h1.76V25.1h4.91v3.14H28.43V25.1
	H30z M40.78,20.2v1.37h-9.8V20.2H40.78z M19.41,19.61c-0.19,0.39-0.78,0.98-1.37,1.57l-0.98-0.98l1.37-1.38
	C18.63,18.82,19.02,19.22,19.41,19.61z M23.73,18.82l-2.36,2.36l-0.98-0.98l2.36-2.36L23.73,18.82z M41.57,16.86v1.18h-9.61v-1.18
	H41.57z M39.8,13.53v1.18h-4.51v-1.18H39.8z M33.14,13.33h-1.38H33.14z M39.8,10.2v1.17h-7.84V10.2H39.8z M17.45,6.67v9.21h10.79
	v0.39c-1.38,4.91-5.89,7.06-9.02,7.06c-4.51,0-9.22-3.13-9.22-8.43c0-3.33,1.96-7.06,6.86-8.23H17.45z M23.14,5.1
	c1.76,0,4.9,3.14,5.1,5.1v0.58h-5.69V5.1H23.14z M19.02,5.1v9.21H29.8v1.96c-1.56,6.08-6.66,8.63-10.78,8.63
	c-5.29,0-10.59-4.12-10.59-10c0-4.31,2.55-8.63,8.63-9.8H19.02z M21.57,3.33c3.53-0.39,8.23,3.92,8.23,6.87v2.15h-8.82V3.33H21.57z
	 M42.16,6.47c-0.2,0.2-0.59,0.2-3.73,0V2.94C39.61,3.92,40.98,5.29,42.16,6.47z M36.67,1.57v6.08l0.58,0.59h6.08v15.09H27.25
	l-0.58,0.59v15.69C27.06,40,27.65,40,28.24,40v8.43h-6.48V45.1c0.2-0.2,0.99,0.19,1.57-0.59v-5.69c-0.39-0.39-0.98-0.39-1.57-0.39
	V35.1c0.2-0.2,0.99,0.19,1.57-0.59v-5.69c-0.39-0.39-0.78-0.58-1.37-0.58H6.67V1.57H36.67z M37.06,0c2.74,1.37,5.1,4.71,7.84,7.06
	v16.67c0.98-0.2,2.16-0.2,3.34,0v14.9c0.19,0,0.98-0.2,1.76,0.59v10.19L49.41,50H0.59L0,49.41v-5.29c0.2-0.79,0.78-0.59,1.76-0.59
	V40.2C0.98,39.41,0.59,40.59,0,40v-5.88c0.2-0.98,0.78-0.59,1.76-0.59v-4.9c0.99-0.2,2.16-0.2,3.34,0c0,0-0.62-28.4-0.39-28.63
	H37.06z"/>
</svg>
