<?xml version="1.0" encoding="utf-8"?>
<!-- Generator: Adobe Illustrator 16.0.0, SVG Export Plug-In . SVG Version: 6.00 Build 0)  -->
<!DOCTYPE svg PUBLIC "-//W3C//DTD SVG 1.1//EN" "http://www.w3.org/Graphics/SVG/1.1/DTD/svg11.dtd">
<svg version="1.1" id="Layer_1" xmlns="http://www.w3.org/2000/svg" xmlns:xlink="http://www.w3.org/1999/xlink" x="0px" y="0px"
	 width="49px" height="53.993px" viewBox="0 0 49 53.993" enable-background="new 0 0 49 53.993" xml:space="preserve">
<path fill-rule="evenodd" clip-rule="evenodd" fill="#870B70" d="M33.29,50.613v1.69H15.71v-1.69H33.29z M29.98,43.203
	c0,1.69,0.41,3.6,0.62,5.29H18.4c0.21-1.69,0.62-3.6,0.83-5.29H29.98z M44.66,38.123v1.27h-1.45v-1.27H44.66z M47.35,36.003v3.39
	c-0.62,0.63-1.45,2.12-2.69,2.12H4.14c-0.21-0.22-2.49-0.85-2.49-1.91v-3.6H47.35z M25.43,12.513c-0.21,1.69-0.21,3.17,2.48,2.75
	v1.69c-2.48-0.63-2.69,0.64-2.48,2.75h-1.86c0-2.11-0.21-3.17-2.48-2.75v-1.69c0.41-0.21,3.1,0.42,2.48-1.48
	c0-0.43,0-0.85,0.21-1.27H25.43z M26.88,11.023v2.76c0.82-0.22,1.86-0.22,2.69,0v4.86c-1.87-0.21-3.52,0-2.69,2.55
	c-0.21,0-0.62,0.21-4.34,0.21c-0.83-0.64-0.42-1.7-0.62-2.33c-0.83-0.85-1.45-0.43-2.49-0.43v-5.08h2.69v-2.54H26.88z M31.43,16.103
	c0,4.45-3.31,7.2-7.03,7.2c-4.35,0-6.83-3.39-6.83-7.2c0-4.02,3.11-7.19,6.83-7.19C28.74,8.913,31.43,12.513,31.43,16.103z
	 M33.08,16.103c0,5.51-4.34,8.9-8.68,8.9c-5.38,0-8.48-4.45-8.48-8.9c0-5.29,3.72-8.67,8.48-8.67
	C29.77,7.433,33.08,11.663,33.08,16.103z M11.16,7.213v23.29c0.21,0.85,0.62,1.48,1.25,1.9h24.18c0.63-0.42,1.04-1.05,1.25-1.69
	v-23.5h7.44c0.83,0.22,2.07,1.28,2.07,1.91v25.19H1.65V9.123c0.42-1.27,1.04-1.91,2.28-1.91H11.16z M34.53,5.313h-2.07v-2.12
	C33.08,3.623,33.91,4.463,34.53,5.313z M30.6,1.713v3.81c0.21,0.64,0.83,1.69,1.45,1.69h3.92v23.29H13.03V1.713H30.6z M31.01,0.023
	c1.86,0.42,4.14,3.6,6.21,5.5h8.27c0.82,0,3.51,1.91,3.51,3.39v30.48c-0.21,0.42-1.86,3.6-3.31,3.6H31.63c0,0-0.2-0.21-0.2,0.42
	c0,0.42,0.41,3.39,0.62,5.08c0.62,0.42,1.44,0,2.27,0.64c1.03,0.84,0.41,1.9,0.62,3.38h1.65v1.48H12.41v-1.48h1.65
	c-0.62,0,0-0.84,0-1.27v-0.84c-0.41-2.76,3.72-0.22,2.89-2.97c0.21-1.27,0.42-2.75,0.62-4.02c0,0,0-0.42-0.62-0.42H3.1
	c-0.83-0.21-3.1-2.12-3.1-3.39V8.913c0.21-0.85,1.86-3.39,3.31-3.39h8.06v-4.02c0.21-0.42,1.04-1.69,1.86-1.48H31.01z"/>
</svg>
