<?xml version="1.0" encoding="utf-8"?>
<!-- Generator: Adobe Illustrator 16.0.0, SVG Export Plug-In . SVG Version: 6.00 Build 0)  -->
<!DOCTYPE svg PUBLIC "-//W3C//DTD SVG 1.1//EN" "http://www.w3.org/Graphics/SVG/1.1/DTD/svg11.dtd">
<svg version="1.1" id="Layer_1" xmlns="http://www.w3.org/2000/svg" xmlns:xlink="http://www.w3.org/1999/xlink" x="0px" y="0px"
	 width="50px" height="52.997px" viewBox="0 0 50 52.997" enable-background="new 0 0 50 52.997" xml:space="preserve">
<path fill-rule="evenodd" clip-rule="evenodd" fill="#FFFFFF" d="M20.77,42.829c-0.11,1.25-0.11,2.6,0,3.94H4.49
	c-1.46-0.31-2.4-1.86-2.4-3v-0.94H20.77z M37.67,46.879c-3.34,1.55-5.63,3.94-8.55,3.94c-3.55,0-6.16-2.7-6.16-6.12
	c0-4.77,4.17-5.6,8.56-8.4L37.67,46.879z M47.9,37.439c0,4.67-3.86,5.39-8.14,8.19l-6.16-10.47c2.72-1.45,5.43-3.83,8.14-3.83
	C45.19,31.329,47.9,34.229,47.9,37.439z M17.64,28.839v3.52h3.23c0.84,0,0.94,0.63,0.94,1.04c0,0.42,0,0.62-0.52,1.04h-3.65v3.63
	c-0.42,0.51-0.63,0.51-1.05,0.51c-0.52,0-1.04-0.41-1.04-0.93v-3.21H12c-0.21-0.21-0.63-0.73-0.63-1.04c0-0.62,0.42-1.04,1.05-1.04
	h3.13v-3.21c0-0.52,0.52-0.93,1.15-0.93C16.8,28.219,17.43,28.629,17.64,28.839z M31.1,25.519v8.4c-3.13,2.07-6.89,2.8-9.29,6.63
	H2.09v-15.03H31.1z M12.42,14.009c0,0.83-0.52,1.04-1.05,1.04c-0.73,0-1.04-0.52-1.04-1.04c0-0.62,0.42-1.03,1.15-1.03
	S12.42,13.699,12.42,14.009z M24.84,11.009v1.86h-9.29c-0.52,0.21-1.15,0.52-1.15,1.14c0,0.32,0.31,0.83,0.73,1.14h10.23
	c1.98,2.7,4.59,5.4,5.74,8.09H2.19c1.25-2.9,3.97-5.8,6.16-8.71v-3.52H24.84z M25.67,2.089c0.42,0.11,0.94,0.11,1.25,0.62v5.5
	l-0.52,0.52H6.89c-0.32-0.21-0.63-0.62-0.63-0.83v-4.77c0.21-0.52,0.52-1.14,1.15-1.04H25.67z M26.51,0.019
	c0.62-0.21,2.61,1.35,2.61,2.28v6.22c-0.21,0.83-1.15,1.97-2.09,2.38v2.6c1.98,3.21,5.63,6.73,6.26,9.43l0.11,9.74
	c2.92-1.86,5.42-3.52,8.34-3.52c3.14,0,6.89,1.87,8.04,6.22c0.21,0.62,0.21,1.87,0.21,2.07c0,1.87,0.21,2.28-1.25,4.57
	c-1.67,2.69-4.6,3.52-6.68,4.87c-3.34,2.07-6.68,3.83-10.02,5.6c-1.15,0.62-1.98,0.51-3.03,0.51c-2.61,0-5.01-0.93-7.2-4.04H4.17
	c-1.98-0.21-4.17-2.8-4.17-4.15v-22.08c1.04-3,4.07-6.01,6.16-9.02v-2.9c-1.26-0.21-2.09-1.97-2.09-2.9v-4.87
	c-0.31-1.04,1.36-3.11,2.61-3.01H26.51z"/>
</svg>
