<?xml version="1.0" encoding="utf-8"?>
<!-- Generator: Adobe Illustrator 16.0.0, SVG Export Plug-In . SVG Version: 6.00 Build 0)  -->
<!DOCTYPE svg PUBLIC "-//W3C//DTD SVG 1.1//EN" "http://www.w3.org/Graphics/SVG/1.1/DTD/svg11.dtd">
<svg version="1.1" id="Layer_1" xmlns="http://www.w3.org/2000/svg" xmlns:xlink="http://www.w3.org/1999/xlink" x="0px" y="0px"
	 width="87.514px" height="100.29px" viewBox="0 0 87.514 100.29" enable-background="new 0 0 87.514 100.29" xml:space="preserve">
<g>
	<path fill-rule="evenodd" clip-rule="evenodd" fill="#52C555" d="M62.92,24.79L63,24.83l0.04,0.04c0.18,0.19,0.44,0.29,0.71,0.29
		s0.53-0.1,0.72-0.29l0.04-0.06l0.04-0.02l8.84-6.99v-0.15c0-0.42-0.3-0.74-0.69-0.74H54.82c-0.42,0-0.78,0.35-0.78,0.74v0.15
		L62.92,24.79z M72.33,30.73l-3.83-4.69c-0.35-0.43-0.31-1.06,0.09-1.43l0.1-0.08c0.18-0.13,0.39-0.2,0.61-0.2
		c0.32,0,0.61,0.14,0.81,0.39l3.29,4.03l-0.01-8.29l-7.53,5.95c-0.54,0.53-1.3,0.84-2.11,0.84c-0.82,0-1.59-0.31-2.18-0.87
		l-7.53-5.92v8.34l3.32-4.08c0.21-0.26,0.51-0.39,0.82-0.39c0.24,0,0.48,0.08,0.67,0.24c0.21,0.18,0.34,0.43,0.37,0.71
		c0.02,0.28-0.06,0.55-0.24,0.76l-3.8,4.69H72.33z M54.78,32.82c-1.57,0-2.84-1.27-2.84-2.83V17.65c0-1.56,1.27-2.83,2.84-2.83
		h17.87c1.56,0,2.84,1.27,2.84,2.83v12.34c0,1.56-1.28,2.83-2.84,2.83H54.78z"/>
	<path fill-rule="evenodd" clip-rule="evenodd" fill="#FFFFFF" d="M19.57,27.3H16.8c-0.51,0-0.92,0.41-0.92,0.92v2.9h-0.93v-2.9
		c0-0.51-0.41-0.92-0.92-0.92H11v-0.79h3.03c0.51,0,0.92-0.41,0.92-0.92v-2.77h0.93v2.77c0,0.51,0.41,0.92,0.92,0.92h2.77V27.3z
		 M21.41,28.22v-2.63c0-0.51-0.41-0.93-0.92-0.93h-2.77v-2.77c0-0.51-0.41-0.92-0.92-0.92h-2.77c-0.51,0-0.92,0.41-0.92,0.92v2.77
		h-3.04c-0.51,0-0.92,0.42-0.92,0.93v2.63c0,0.51,0.41,0.93,0.92,0.93h3.04v2.9c0,0.51,0.41,0.92,0.92,0.92h2.77
		c0.51,0,0.92-0.41,0.92-0.92v-2.9h2.77C21,29.15,21.41,28.73,21.41,28.22z"/>
	<path fill="#242764" d="M16.14,3.06h-4.29c-5.23,0-9.59,4.29-9.59,9.52v0.56h4.29v-0.56C6.55,7.35,10.91,3.06,16.14,3.06z"/>
	<path fill="#242764" d="M6.55,88v-9.44H2.26V88c0,5.23,4.36,9.43,9.59,9.43h4.29C10.91,97.43,6.55,93.23,6.55,88z"/>
	<rect x="2.26" y="15.71" fill="#242764" width="4.29" height="60.27"/>
	<path fill="#242764" d="M45.14,51.42l5.81-3.44l2.9-6.54c0.23-0.51,0.1-1.11-0.32-1.48c-8.82-7.88-9.58-21.42-1.7-30.23
		c3.57-4,8.51-6.51,13.84-7.04c-0.71-0.07-1.42-0.11-2.15-0.11C51.69,2.58,42.1,12.17,42.1,24c0,6.09,2.6,11.9,7.14,15.96
		c0.42,0.37,0.55,0.97,0.32,1.48L45.14,51.42z"/>
	<path fill-rule="evenodd" clip-rule="evenodd" fill="#FFFFFF" d="M2.59,88.22v-9.48h51.82v9.48c0,5.26-4.36,9.48-9.63,9.48H12.25
		C6.98,97.7,2.59,93.48,2.59,88.22z M10.69,76.15h-8.1V15.59h41.02v-2.58H2.59v-0.57c0-5.26,4.39-9.56,9.66-9.56h32.53
		c2.43,0,4.76,0.92,6.53,2.58l1.77-1.89c-2.25-2.11-5.21-3.28-8.3-3.28H12.25C5.55,0.29,0,5.76,0,12.44v75.78
		c0,6.69,5.55,12.07,12.25,12.07h32.53c6.7,0,12.22-5.38,12.22-12.07V47.27h-2.59v28.88h-8.07H10.69z"/>
	<path fill="#FFFFFF" d="M23.03,89.28h9.96c0.71,0,1.29-0.57,1.29-1.29c0-0.71-0.58-1.28-1.29-1.28h-9.96
		c-0.71,0-1.29,0.57-1.29,1.28C21.74,88.71,22.32,89.28,23.03,89.28z"/>
	<path fill-rule="evenodd" clip-rule="evenodd" fill="#52C555" d="M63.52,45.42c-2.03,0-4.05-0.29-6-0.86
		c-0.34-0.1-0.71-0.05-1.02,0.13l-11.36,6.73l4.42-9.98c0.23-0.51,0.1-1.11-0.32-1.48c-8.81-7.89-9.56-21.43-1.68-30.24
		c7.89-8.81,21.43-9.56,30.25-1.68c8.81,7.89,9.56,21.43,1.67,30.24C75.42,42.83,69.61,45.42,63.52,45.42L63.52,45.42z M63.52,0
		C50.27,0,39.53,10.74,39.53,23.99c0,6.5,2.63,12.73,7.3,17.25l-5.68,12.81c-0.29,0.65,0,1.41,0.65,1.7
		c0.38,0.17,0.82,0.15,1.18-0.07l14.36-8.49c12.81,3.41,25.95-4.21,29.36-17.02c3.41-12.8-4.21-25.95-17.02-29.36
		C67.67,0.28,65.6,0.01,63.52,0z"/>
	<path fill="#D4E1F4" d="M30.95,63.15c-0.48,0-0.97-0.04-1.44-0.1v-0.6c0.68-0.09,1.35-0.25,1.99-0.49l0.41-0.14v1.28l-0.28,0.02
		C31.4,63.14,31.18,63.15,30.95,63.15z"/>
	<path fill="#D4E1F4" d="M28.15,65.2c-1.24,0-2.44-0.26-3.57-0.77l-0.18-0.08v-2.53l0.4,0.14c0.88,0.32,1.79,0.51,2.72,0.56
		l0.28,0.02v1.42c0.58,0.25,1.18,0.42,1.8,0.52v0.6C29.12,65.16,28.64,65.2,28.15,65.2z"/>
	<path fill="#D4E1F4" d="M30.95,67.16c-0.49-0.01-0.97-0.04-1.44-0.1v-0.6c1.06-0.14,2.08-0.45,3.04-0.91l0.11-0.05l1.67,0.54v0.57
		C33.23,66.97,32.1,67.16,30.95,67.16L30.95,67.16z"/>
	<path fill-rule="evenodd" clip-rule="evenodd" fill="#FFFFFF" d="M31.73,42.92c1.1,0.79,2.78,1.66,5.11,2.04v-2.01
		c0-4.79-3.9-8.68-8.68-8.68c-4.62,0-8.41,3.62-8.67,8.17c0.23-0.22,0.54-0.35,0.88-0.35c0.08,0,0.37,0.01,0.85,0.01
		c1.98,0,8.75-0.23,12.74-3.29c0.22-0.17,0.49-0.26,0.77-0.26c0.4,0,0.77,0.18,1.02,0.5c0.42,0.56,0.32,1.36-0.24,1.79
		C34.35,41.71,33.08,42.4,31.73,42.92z M27.29,44.13c1.47,0.83,3.01,1.4,4.44,1.78c-1.37-0.72-2.32-1.53-2.9-2.1
		C28.33,43.93,27.82,44.04,27.29,44.13z M20.29,54.07c0.61,3.26,3.12,5.77,6.38,6.38c0.5,0.09,1,0.14,1.49,0.14
		c3.84,0,7.15-2.74,7.86-6.52l0.03-0.12l0.49-1.71c0.09-0.49,0.51-0.9,1.03-0.99c0.39-0.09,0.66-0.29,0.83-0.57
		c0.17-0.28,0.23-0.61,0.15-0.93c-0.05-0.21-0.22-0.38-0.43-0.44l-0.36,0.01c-2.03,0-9.03-0.34-14.3-4.73
		c-0.76,0.05-1.4,0.07-1.87,0.07l-0.11,2.38c-0.01,0.3-0.07,0.6-0.19,0.87c-0.4,0.99-1.35,1.63-2.42,1.63
		c-0.29,0-0.58-0.05-0.86-0.15c-0.12,0.08-0.22,0.21-0.25,0.36c-0.07,0.4,0,0.73,0.19,1c0.18,0.27,0.46,0.45,0.79,0.5
		c0.52,0.09,0.93,0.5,1.03,1.02l0.49,1.69L20.29,54.07L20.29,54.07z M25,63.96c1,0.42,2.06,0.64,3.15,0.64
		c1.09,0,2.15-0.22,3.16-0.64v-1.3c-1.02,0.32-2.08,0.49-3.16,0.49c-1.07,0-2.13-0.17-3.15-0.49V63.96z M42.25,75.71v-3.72
		c0.01-0.28-0.02-0.56-0.08-0.83l0.25-0.23l-0.29,0.09c-0.36-1.28-1.34-2.27-2.6-2.67l-6.83-2.21c-1.41,0.66-2.98,1.02-4.55,1.02
		c-1.56,0-3.13-0.36-4.54-1.02l-6.83,2.21c-1.27,0.4-2.24,1.39-2.6,2.67l-0.04,0.13c-0.06,0.28-0.09,0.56-0.09,0.84v3.72H42.25z
		 M12.78,78.27c-0.71,0-1.28-0.57-1.28-1.28v-5c-0.01-0.48,0.04-0.95,0.15-1.41l0.06-0.24c0.6-2.11,2.2-3.76,4.29-4.42l6.45-2.09
		v-2.36c-2.42-1.56-4.12-4.06-4.67-6.88l-0.3-1.06c-1.7-0.72-2.65-2.58-2.2-4.38c0.21-0.9,0.82-1.66,1.64-2.08v-4.12
		c0.02-6.26,5.06-11.28,11.24-11.28c6.23,0.02,11.26,5.08,11.23,11.28v4.12c0.82,0.42,1.43,1.18,1.64,2.08
		c0.44,1.8-0.5,3.66-2.2,4.38l-0.31,1.08c-0.54,2.8-2.24,5.3-4.66,6.86v2.36l6.45,2.09c2.09,0.66,3.69,2.31,4.29,4.41l0.06,0.25
		c0.1,0.46,0.15,0.94,0.15,1.41v5c0,0.71-0.57,1.28-1.28,1.28H12.78z"/>
</g>
</svg>
