<?xml version="1.0" encoding="utf-8"?>
<!-- Generator: Adobe Illustrator 16.0.0, SVG Export Plug-In . SVG Version: 6.00 Build 0)  -->
<!DOCTYPE svg PUBLIC "-//W3C//DTD SVG 1.1//EN" "http://www.w3.org/Graphics/SVG/1.1/DTD/svg11.dtd">
<svg version="1.1" id="Layer_1" xmlns="http://www.w3.org/2000/svg" xmlns:xlink="http://www.w3.org/1999/xlink" x="0px" y="0px"
	 width="50px" height="47px" viewBox="0 0 50 47" enable-background="new 0 0 50 47" xml:space="preserve">
<path fill-rule="evenodd" clip-rule="evenodd" fill="#F7F9FA" d="M26.61,36.24c0,0.97-1.07,1.65-1.66,1.65
	c-1.08,0-1.56-1.07-1.56-1.65c0-0.87,0.78-1.45,1.56-1.45C25.83,34.79,26.61,35.56,26.61,36.24z M28.38,36.34
	c0,0.97-0.98,3-2.55,3.1v2.04c-0.29,0.67-0.68,0.58-0.88,0.58c-0.29,0-0.78-0.2-0.78-0.49v-2.03c-1.67-0.2-2.55-2.13-2.55-3.2
	c0-1.94,1.47-3.39,3.33-3.39C27.01,32.95,28.38,34.6,28.38,36.34z M36.59,40.7c0.1,1.65-2.15,4.56-4.2,4.56H17.51
	c-2.05-0.2-4.1-2.72-4.1-4.46V29.85h23.18V40.7z M29.94,25.2v2.71h-9.88V25.2c0.19-2.91,2.74-4.56,4.99-4.56
	C27.4,20.64,29.94,22.68,29.94,25.2z M33.07,24.13c0,0.19,0.2,0.48,0.2,0.78v3H31.8v-3c-0.39-3.98-3.91-6.11-6.85-6.11
	c-3.62,0-6.75,3.1-6.75,6.2v2.91h-1.47v-3c0.49-4.85,4.5-7.56,8.22-7.56C28.28,17.35,32.09,19.48,33.07,24.13z M39.53,8.82
	c0.1,0.29,1.17,3.1,1.17,3.68v0.49h-2.54c-0.49,0.19-1.57,0-1.57,0.96c0,1.07,0.89,0.88,1.28,0.88h3.32
	c4.6,0.77,7.15,4.75,7.15,8.23c0,2.62-1.76,6.11-5.29,7.47C42.37,30.72,41,31.2,40.7,31.2h-2.25c-0.09-0.96,0.4-2.61-1.27-3.19
	c-0.68-0.29-1.37-0.1-2.05-0.1v-3.3c-0.79-6-5.68-9.1-10.18-9.1c-3.72,0-8.22,2.22-9.78,7.46c-0.1,0.48-0.3,1.45-0.3,1.74v3.2
	c-0.68,0-1.46-0.1-2.05,0.1c-1.67,0.48-1.27,2.13-1.27,3.19H9.49c-0.39-0.09-0.88-0.38-1.37-0.38c-2.93-0.39-6.36-4.85-6.36-7.27
	v-2.23c0.2-2.52,2.55-6.4,5.77-7.56v-1.84c0.3-3.49,3.23-5.33,5.78-5.33c0.19,0,1.56,0.29,2.35,0.48c1.07,0.29,2.83,2.33,3.03,3.4
	c0.1,0.67,0.29,1.45,0.39,2.22c0,0.2,0.69,0.59,0.88,0.59c0.88,0,0.98-0.97,0.98-1.17c0-3.49-2.54-5.33-2.54-5.52
	c0-0.29,0.39-0.48,0.58-0.68c1.47-1.74,3.52-3,5.38-3.58c1.28-0.39,2.74-0.68,4.11-0.68C32.29,1.65,36.99,3.59,39.53,8.82z
	 M31.8,0.29c4.6,0.87,9.49,6.49,10.08,9.69c0.1,0.49,0.29,1.07,0.39,1.55c0.1,0.49,0.2,1.16,0.29,1.75
	c5.39,1.64,7.44,5.91,7.44,9.78c0,3.4-1.37,6.79-6.26,9.11c-0.88,0.39-2.45,0.78-2.74,0.78h-2.64v8.24c0,2.22-3.13,5.81-5.68,5.81
	H17.22c-2.45-0.1-5.58-3.39-5.58-5.72v-8.33H9.3c-0.4-0.1-0.89-0.29-1.18-0.29c-3.33-0.49-7.44-4.56-7.92-7.75
	c0-0.3-0.2-0.88-0.2-1.07v-2.81c0.2-0.78,0.29-1.65,0.59-2.33c0.49-1.45,1.37-3.19,3.03-4.55c0.78-0.68,2.15-1.26,2.15-2.04
	c0.3-4.75,3.82-7.26,7.54-7.26c0.19,0,1.46,0.09,2.25,0.29c0.39,0.09,0.78,0.29,1.07,0.38C20.74,1.07,24.27,0,28.38,0
	C29.35,0,30.63,0.1,31.8,0.29z"/>
</svg>
