<?xml version="1.0" encoding="utf-8"?>
<!-- Generator: Adobe Illustrator 16.0.0, SVG Export Plug-In . SVG Version: 6.00 Build 0)  -->
<!DOCTYPE svg PUBLIC "-//W3C//DTD SVG 1.1//EN" "http://www.w3.org/Graphics/SVG/1.1/DTD/svg11.dtd">
<svg version="1.1" id="Layer_1" xmlns="http://www.w3.org/2000/svg" xmlns:xlink="http://www.w3.org/1999/xlink" x="0px" y="0px"
	 width="61.914px" height="36.828px" viewBox="0 0 61.914 36.828" enable-background="new 0 0 61.914 36.828" xml:space="preserve">
<polygon fill-rule="evenodd" clip-rule="evenodd" fill="#F2EEF5" stroke="#7550A8" stroke-width="2" stroke-linecap="square" stroke-miterlimit="10" points="
	44.5,2.414 60.5,18.414 44.5,34.414 44.5,24.414 23.5,24.414 23.5,11.414 44.5,11.414 "/>
<line fill-rule="evenodd" clip-rule="evenodd" fill="none" stroke="#7550A8" stroke-width="2" stroke-linecap="square" stroke-miterlimit="10" x1="15" y1="10.914" x2="15" y2="23.914"/>
<line fill-rule="evenodd" clip-rule="evenodd" fill="none" stroke="#B6A5CB" stroke-width="2" stroke-linecap="square" stroke-miterlimit="10" x1="8" y1="10.914" x2="8" y2="23.914"/>
<line fill-rule="evenodd" clip-rule="evenodd" fill="none" stroke="#E5DFED" stroke-width="2" stroke-linecap="square" stroke-miterlimit="10" x1="1" y1="10.914" x2="1" y2="23.914"/>
</svg>
